…
``` r
#CREATE CATEGORICAL VARIABLE FOR DIAMETER GROUPS
vancouver_trees_1 <- vancouver_trees %>% #select dataset
   mutate(diameter_group = factor(case_when(diameter < 21 ~ "small",
                                        diameter < 41 ~ "medium",
                                        TRUE ~ "large"),
                              levels = c('small', 'medium', 'large'))) %>% #add new variable for diameter groups
  select(tree_id,civic_number,diameter,diameter_group,everything()) #reorder columns to make sure diameter and diameter_group are easily visible in printed tibble
print(vancouver_trees_1)
```

    ## # A tibble: 146,611 × 21
    ##    tree_id civic_number diameter diameter_group std_street    genus_name
    ##      <dbl>        <dbl>    <dbl> <fct>          <chr>         <chr>     
    ##  1  149556          494     10   small          W 58TH AV     ULMUS     
    ##  2  149563          450     10   small          W 58TH AV     ZELKOVA   
    ##  3  149579         4994      4   small          WINDSOR ST    STYRAX    
    ##  4  149590          858     18   small          E 39TH AV     FRAXINUS  
    ##  5  149604         5032      9   small          WINDSOR ST    ACER      
    ##  6  149616          585      5   small          W 61ST AV     PYRUS     
    ##  7  149617         4909     15   small          SHERBROOKE ST ACER      
    ##  8  149618         4925     14   small          SHERBROOKE ST ACER      
    ##  9  149619         4969     16   small          SHERBROOKE ST ACER      
    ## 10  149625          720      7.5 small          E 39TH AV     FRAXINUS  
    ## # ℹ 146,601 more rows
    ## # ℹ 15 more variables: species_name <chr>, cultivar_name <chr>,
    ## #   common_name <chr>, assigned <chr>, root_barrier <chr>, plant_area <chr>,
    ## #   on_street_block <dbl>, on_street <chr>, neighbourhood_name <chr>,
    ## #   street_side_name <chr>, height_range_id <dbl>, curb <chr>,
    ## #   date_planted <date>, longitude <dbl>, latitude <dbl>
…
**Plant area observations**

``` r
#COMPUTE NUMBER OF OBSERVATIONS FOR PLANT AREA
vancouver_trees_2b <- vancouver_trees %>% #select dataset
  group_by(plant_area) %>%
  summarise(num_trees=n())
print(vancouver_trees_2b)
```

    ## # A tibble: 49 × 2
    ##    plant_area num_trees
    ##    <chr>          <int>
    ##  1 0                  3
    ##  2 1                 33
    ##  3 10             20467
    ##  4 11              1235
    ##  5 12              9198
    ##  6 13               290
    ##  7 14               422
    ##  8 15              1617
    ##  9 16               215
    ## 10 17               102
    ## # ℹ 39 more rows
…
``` r
#FIND NUMBER OF TREES PLANTED IN EACH NEIGHBOURHOOD
vancouver_trees_3 <- vancouver_trees %>% #select dataset
  group_by(neighbourhood_name) %>%
  summarise(num_trees=n()) %>%
  arrange(desc(num_trees)) #arrange in descending order
print(vancouver_trees_3)
```

    ## # A tibble: 22 × 2
    ##    neighbourhood_name       num_trees
    ##    <chr>                        <int>
    ##  1 RENFREW-COLLINGWOOD          11386
    ##  2 KENSINGTON-CEDAR COTTAGE     11042
    ##  3 HASTINGS-SUNRISE             10547
    ##  4 DUNBAR-SOUTHLANDS             9415
    ##  5 SUNSET                        8367
    ##  6 KITSILANO                     8115
    ##  7 VICTORIA-FRASERVIEW           7789
    ##  8 SHAUGHNESSY                   7009
    ##  9 KERRISDALE                    6936
    ## 10 RILEY PARK                    6870
    ## # ℹ 12 more rows
…
``` r
#CREATE NEW CATEGORICAL VARIABLE TO GROUP DATE PLANTED VALUES
vancouver_trees_4 <- vancouver_trees %>%
   mutate(date_planted_group = factor(case_when(date_planted < "1995-01-01" ~ "before 1995",
                                        date_planted < "2000-01-01" ~ "1995-1999",
                                        date_planted < "2005-01-01" ~ "2000-2004",
                                        date_planted < "2010-01-01" ~ "2005-2009",
                                        date_planted < "2015-01-01" ~ "2010-2014",
                                        TRUE ~ "2015 and after"),
                              levels = c('before 1995','1995-1999','2000-2004','2005-2009','2010-2014','2015 and after'))) %>%
  select(tree_id,civic_number,date_planted,date_planted_group,everything()) #reorder columns to make sure date_planted and date_planted_group are easily visible in the printed table
print(vancouver_trees_4)
```

    ## # A tibble: 146,611 × 21
    ##    tree_id civic_number date_planted date_planted_group std_street    genus_name
    ##      <dbl>        <dbl> <date>       <fct>              <chr>         <chr>     
    ##  1  149556          494 1999-01-13   1995-1999          W 58TH AV     ULMUS     
    ##  2  149563          450 1996-05-31   1995-1999          W 58TH AV     ZELKOVA   
    ##  3  149579         4994 1993-11-22   before 1995        WINDSOR ST    STYRAX    
    ##  4  149590          858 1996-04-29   1995-1999          E 39TH AV     FRAXINUS  
    ##  5  149604         5032 1993-12-17   before 1995        WINDSOR ST    ACER      
    ##  6  149616          585 NA           2015 and after     W 61ST AV     PYRUS     
    ##  7  149617         4909 1993-12-16   before 1995        SHERBROOKE ST ACER      
    ##  8  149618         4925 1993-12-16   before 1995        SHERBROOKE ST ACER      
    ##  9  149619         4969 1993-12-16   before 1995        SHERBROOKE ST ACER      
    ## 10  149625          720 1993-12-03   before 1995        E 39TH AV     FRAXINUS  
    ## # ℹ 146,601 more rows
    ## # ℹ 15 more variables: species_name <chr>, cultivar_name <chr>,
    ## #   common_name <chr>, assigned <chr>, root_barrier <chr>, plant_area <chr>,
    ## #   on_street_block <dbl>, on_street <chr>, neighbourhood_name <chr>,
    ## #   street_side_name <chr>, height_range_id <dbl>, diameter <dbl>, curb <chr>,
    ## #   longitude <dbl>, latitude <dbl>
…
``` r
#UN-TIDY THE DATA
vancouver_trees_untidy <- vancouver_trees_smaller %>% #select dataset
  pivot_longer(cols=c(species_name,genus_name),
               names_to=c("taxonomic_rank",".value"),
               names_sep="_") %>% #pivot the table longer to create new column to specify genus or species info
  select(tree_id, taxonomic_rank,name,everything()) #re-order the columns

#PRINT THE RESULT
print(vancouver_trees_untidy) #check the resulting table
```

    ## # A tibble: 293,222 × 8
    ##    tree_id taxonomic_rank name      root_barrier plant_area neighbourhood_name  
    ##      <dbl> <chr>          <chr>     <chr>        <chr>      <chr>               
    ##  1  149556 species        AMERICANA N            N          MARPOLE             
    ##  2  149556 genus          ULMUS     N            N          MARPOLE             
    ##  3  149563 species        SERRATA   N            N          MARPOLE             
    ##  4  149563 genus          ZELKOVA   N            N          MARPOLE             
    ##  5  149579 species        JAPONICA  N            4          KENSINGTON-CEDAR CO…
    ##  6  149579 genus          STYRAX    N            4          KENSINGTON-CEDAR CO…
    ##  7  149590 species        AMERICANA N            4          KENSINGTON-CEDAR CO…
    ##  8  149590 genus          FRAXINUS  N            4          KENSINGTON-CEDAR CO…
    ##  9  149604 species        CAMPESTRE N            4          KENSINGTON-CEDAR CO…
    ## 10  149604 genus          ACER      N            4          KENSINGTON-CEDAR CO…
    ## # ℹ 293,212 more rows
    ## # ℹ 2 more variables: diameter <dbl>, date_planted <date>
…
``` r
#RE-TIDY THE DATA
vancouver_trees_tidy <- vancouver_trees_untidy %>% #select the untidied dataset
  pivot_wider(names_from=taxonomic_rank,
              names_glue="{taxonomic_rank}_name",
               values_from=name) %>% #pivot the table wider to restore separate genus_name & species_name columns
  select(tree_id, genus_name,species_name,everything()) #change order of columns

#COMPARE RE-TIDIED DATA TO THE ORIGINAL TIDY DATA
print(vancouver_trees_smaller) #print original tidy dataset to make checking easy
```

    ## # A tibble: 146,611 × 8
    ##    tree_id genus_name species_name root_barrier plant_area neighbourhood_name   
    ##      <dbl> <chr>      <chr>        <chr>        <chr>      <chr>                
    ##  1  149556 ULMUS      AMERICANA    N            N          MARPOLE              
    ##  2  149563 ZELKOVA    SERRATA      N            N          MARPOLE              
    ##  3  149579 STYRAX     JAPONICA     N            4          KENSINGTON-CEDAR COT…
    ##  4  149590 FRAXINUS   AMERICANA    N            4          KENSINGTON-CEDAR COT…
    ##  5  149604 ACER       CAMPESTRE    N            4          KENSINGTON-CEDAR COT…
    ##  6  149616 PYRUS      CALLERYANA   N            B          MARPOLE              
    ##  7  149617 ACER       PLATANOIDES  N            6          KENSINGTON-CEDAR COT…
    ##  8  149618 ACER       PLATANOIDES  N            6          KENSINGTON-CEDAR COT…
    ##  9  149619 ACER       PLATANOIDES  N            3          KENSINGTON-CEDAR COT…
    ## 10  149625 FRAXINUS   AMERICANA    N            3          KENSINGTON-CEDAR COT…
    ## # ℹ 146,601 more rows
    ## # ℹ 2 more variables: diameter <dbl>, date_planted <date>

``` r
print(vancouver_trees_tidy) #print the re-tidied dataset
```

    ## # A tibble: 146,611 × 8
    ##    tree_id genus_name species_name root_barrier plant_area neighbourhood_name   
    ##      <dbl> <chr>      <chr>        <chr>        <chr>      <chr>                
    ##  1  149556 ULMUS      AMERICANA    N            N          MARPOLE              
    ##  2  149563 ZELKOVA    SERRATA      N            N          MARPOLE              
    ##  3  149579 STYRAX     JAPONICA     N            4          KENSINGTON-CEDAR COT…
    ##  4  149590 FRAXINUS   AMERICANA    N            4          KENSINGTON-CEDAR COT…
    ##  5  149604 ACER       CAMPESTRE    N            4          KENSINGTON-CEDAR COT…
    ##  6  149616 PYRUS      CALLERYANA   N            B          MARPOLE              
    ##  7  149617 ACER       PLATANOIDES  N            6          KENSINGTON-CEDAR COT…
    ##  8  149618 ACER       PLATANOIDES  N            6          KENSINGTON-CEDAR COT…
    ##  9  149619 ACER       PLATANOIDES  N            3          KENSINGTON-CEDAR COT…
    ## 10  149625 FRAXINUS   AMERICANA    N            3          KENSINGTON-CEDAR COT…
    ## # ℹ 146,601 more rows
    ## # ℹ 2 more variables: diameter <dbl>, date_planted <date>
…
#CHECK RESULT
print(vancouver_trees_RQ1)
```

    ## # A tibble: 69,171 × 4
    ##    tree_id plant_area plant_area_group date_planted
    ##      <dbl> <chr>      <fct>            <date>      
    ##  1  159854 b          b                1995-04-03  
    ##  2  159856 b          b                1995-04-03  
    ##  3  184704 b          b                2000-03-03  
    ##  4  184705 b          b                2000-03-03  
    ##  5  189175 b          b                2001-10-30  
    ##  6  189227 b          b                2001-11-01  
    ##  7   22024 b          b                2008-11-19  
    ##  8   22027 b          b                2008-11-20  
    ##  9    3106 b          b                2009-12-03  
    ## 10    4904 b          b                2009-12-03  
    ## # ℹ 69,161 more rows
…
#CHECK RESULT
print(vancouver_trees_RQ2)
```

    ## # A tibble: 22 × 284
    ## # Groups:   neighbourhood_name [22]
    ##    neighbourhood_name      ABIES `ACERIFOLIA   X` ACUTISSIMA ALNIFOLIA AMERICANA
    ##    <chr>                   <int>            <int>      <int>     <int>     <int>
    ##  1 ARBUTUS-RIDGE               2              103          5        16       225
    ##  2 DOWNTOWN                    1              123         67         3        50
    ##  3 DUNBAR-SOUTHLANDS          11              168         23        18       435
    ##  4 FAIRVIEW                    7               19         NA         6       165
    ##  5 GRANDVIEW-WOODLAND          4               63         14         7       208
    ##  6 HASTINGS-SUNRISE            4               70         47        65       175
    ##  7 KENSINGTON-CEDAR COTTA…    15               64         81        13       747
    ##  8 KERRISDALE                  5               59          8         3       340
    ##  9 KILLARNEY                   4               57          8         2       206
    ## 10 KITSILANO                  17              141         23        16       260
    ## # ℹ 12 more rows
    ## # ℹ 278 more variables: AQUIFOLIUM <int>, ARIA <int>, `ARNOLDIANA X` <int>,
    ## #   AUCUPARIA <int>, AVIUM <int>, BABYLONICA <int>, BANKSIANA <int>,
    ## #   BETULUS <int>, BIGNONIOIDES <int>, BILOBA <int>, BLIREANA <int>,
    ## #   CALLERYANA <int>, CAMPESTRE <int>, CANADENSIS <int>, CAPPADOCICUM <int>,
    ## #   `CARNEA   X` <int>, CAROLINIANA <int>, CERASIFERA <int>, CINEREA <int>,
    ## #   CIRCINATUM <int>, COCCINEA <int>, CONTORTA <int>, CONTROVERSA <int>, …
…
